…
``` r
  homicide_df %>% 
    group_by(disposition,city) %>% 
  count()
```

    ## # A tibble: 145 × 3
    ## # Groups:   disposition, city [145]
    ##    disposition      city            n
    ##    <chr>            <chr>       <int>
    ##  1 Closed by arrest Albuquerque   232
    ##  2 Closed by arrest Atlanta       600
    ##  3 Closed by arrest Baltimore    1002
    ##  4 Closed by arrest Baton Rouge   228
    ##  5 Closed by arrest Birmingham    453
    ##  6 Closed by arrest Boston        304
    ##  7 Closed by arrest Buffalo       202
    ##  8 Closed by arrest Charlotte     481
    ##  9 Closed by arrest Chicago      1462
    ## 10 Closed by arrest Cincinnati    385
    ## # … with 135 more rows
…
